<?xml version="1.0" encoding="UTF-8" standalone="no"?>
<svg
   xmlns:dc="http://purl.org/dc/elements/1.1/"
   xmlns:cc="http://creativecommons.org/ns#"
   xmlns:rdf="http://www.w3.org/1999/02/22-rdf-syntax-ns#"
   xmlns:svg="http://www.w3.org/2000/svg"
   xmlns="http://www.w3.org/2000/svg"
   xmlns:sodipodi="http://sodipodi.sourceforge.net/DTD/sodipodi-0.dtd"
   xmlns:inkscape="http://www.inkscape.org/namespaces/inkscape"
   sodipodi:docname="icon.svg"
   inkscape:version="1.0 (4035a4fb49, 2020-05-01)"
   inkscape:export-ydpi="22.23"
   inkscape:export-xdpi="22.23"
   inkscape:export-filename="/home/es20490446e/Downloads/icon.png"
   id="svg8"
   version="1.1"
   viewBox="0 0 285.74999 285.75001"
   height="1080"
   width="1080">
  <defs
     id="defs2">
    <filter
       id="filter996"
       style="color-interpolation-filters:sRGB"
       x="-0.25"
       width="1.5"
       y="-0.25"
       height="1.5"
       inkscape:menu="Non-Realistic 3D Shaders"
       inkscape:menu-tooltip="Double reflection through glass with some refraction"
       inkscape:label="Refractive Glass">
      <feGaussianBlur
         id="feGaussianBlur976"
         in="SourceGraphic"
         result="result8"
         stdDeviation="5" />
      <feComposite
         id="feComposite978"
         result="result18"
         operator="xor"
         in2="result8"
         in="result8" />
      <feComposite
         id="feComposite980"
         in2="result18"
         result="result16"
         operator="arithmetic"
         k2="0.5"
         k1="1"
         in="result8" />
      <feComposite
         id="feComposite982"
         in="result16"
         operator="atop"
         result="result6"
         in2="result8" />
      <feOffset
         id="feOffset984"
         in="result6"
         result="result17" />
      <feDisplacementMap
         id="feDisplacementMap986"
         result="result4"
         scale="100"
         yChannelSelector="A"
         xChannelSelector="A"
         in="result17"
         in2="result16" />
      <feComposite
         id="feComposite988"
         k3="1"
         in="result17"
         operator="arithmetic"
         result="result2"
         in2="result4" />
      <feComposite
         id="feComposite990"
         operator="out"
         in="result2"
         result="fbSourceGraphic"
         in2="result17" />
      <feComposite
         id="feComposite992"
         result="result14"
         operator="over"
         in2="fbSourceGraphic"
         in="fbSourceGraphic" />
      <feComposite
         id="feComposite994"
         in="result14"
         operator="in"
         in2="SourceGraphic"
         result="result15" />
    </filter>
  </defs>
  <sodipodi:namedview
     inkscape:window-maximized="1"
     inkscape:window-y="0"
     inkscape:window-x="96"
     inkscape:window-height="1030"
     inkscape:window-width="1824"
     showborder="true"
     units="px"
     inkscape:showpageshadow="false"
     showgrid="false"
     inkscape:document-rotation="0"
     inkscape:current-layer="layer1"
     inkscape:document-units="mm"
     inkscape:cy="755.97174"
     inkscape:cx="156.69782"
     inkscape:zoom="0.32"
     inkscape:pageshadow="2"
     inkscape:pageopacity="0.0"
     borderopacity="1.0"
     bordercolor="#666666"
     pagecolor="#ffffff"
     id="base" />
  <metadata
     id="metadata5">
    <rdf:RDF>
      <cc:Work
         rdf:about="">
        <dc:format>image/svg+xml</dc:format>
        <dc:type
           rdf:resource="http://purl.org/dc/dcmitype/StillImage" />
        <dc:title />
      </cc:Work>
    </rdf:RDF>
  </metadata>
  <g
     id="layer1"
     inkscape:groupmode="layer"
     inkscape:label="Layer 1">
    <g
       id="g881" />
    <rect
       ry="7.3881825e-14"
       y="153.37535"
       x="49.536442"
       height="111.60202"
       width="186.67714"
       id="rect833"
       style="fill:#9a9996;stroke-width:10.6632;stroke-linecap:round" />
    <rect
       ry="6.6581343e-14"
       y="211.52846"
       x="12.184969"
       height="48.893223"
       width="261.38007"
       id="rect835"
       style="mix-blend-mode:normal;fill:#5e5c64;stroke:#5e5c64;stroke-width:10.0605;stroke-linecap:round;stroke-linejoin:round;stroke-miterlimit:4;stroke-dasharray:none;stroke-opacity:1;paint-order:stroke fill markers" />
    <g
       style="fill:#ed333b"
       transform="matrix(0.66670403,0,0,0.65950173,47.619672,37.189595)"
       id="g905">
      <path
         d="m 2.875,114.89419 h 280 c 0,0 0,0 0,0 v 64.21464 c 0,0 0,0 0,0 h -280 c 0,0 0,0 0,0 v -64.21464 c 0,0 0,0 0,0 z m 0,0.86242 a 140,140.6496 0 0 1 140,-140.6496 140,140.6496 0 0 1 140,140.6496 h -140 z"
         style="fill:#ed333b;stroke-width:9.906;stroke-linecap:round;stroke-miterlimit:4;stroke-dasharray:none"
         id="rect833-6" />
    </g>
  </g>
</svg>
